Date,Open,High,Low,Close,Adj Close,Volume
20151022,33.619999,33.720001,32.349998,32.480000,32.480000,9814400
20151023,31.510000,31.969999,31.200001,31.410000,31.410000,7262200
20151026,31.510000,31.820000,31.459999,31.620001,31.620001,3685500
20151027,32.000000,32.180000,31.629999,31.799999,31.799999,4358800
20151028,31.620001,31.990000,30.719999,30.740000,30.740000,7333100
20151029,30.990000,31.049999,30.590000,30.770000,30.770000,4079300
20151030,30.660000,31.219999,30.510000,31.190001,31.190001,4336100
20151102,31.030001,31.049999,29.959999,30.090000,30.090000,4582000
20151103,30.260000,30.360001,29.510000,29.799999,29.799999,4132600
20151104,29.639999,30.330000,29.590000,30.070000,30.070000,4800400
20151105,30.049999,30.600000,29.799999,30.160000,30.160000,4772500
20151106,30.360001,30.889999,30.090000,30.200001,30.200001,5952800
20151109,30.530001,31.530001,30.440001,31.049999,31.049999,7683700
20151110,31.340000,31.450001,30.820000,30.850000,30.850000,4758400
20151111,30.690001,31.240000,30.660000,31.209999,31.209999,4309100
20151112,31.750000,32.520000,31.510000,32.509998,32.509998,7584400
20151113,32.750000,33.650002,32.590000,33.590000,33.590000,8406800
20151116,33.709999,33.770000,32.049999,32.060001,32.060001,8476100
20151117,31.900000,32.419998,31.400000,32.169998,32.169998,7241800
20151118,31.879999,31.889999,30.520000,30.610001,30.610001,6466300
20151119,30.690001,30.840000,30.459999,30.670000,30.670000,3620600
20151120,30.290001,30.540001,30.000000,30.320000,30.320000,4170800
20151123,30.309999,30.690001,30.049999,30.469999,30.469999,2754800
20151124,31.000000,31.180000,30.110001,30.320000,30.320000,4343800
20151125,30.260000,30.469999,30.160000,30.350000,30.350000,2333800
20151127,30.280001,30.540001,30.129999,30.230000,30.230000,1470900
20151130,30.150000,30.670000,30.090000,30.600000,30.600000,3366400
20151201,30.280001,30.410000,29.670000,29.709999,29.709999,4546900
20151202,29.750000,30.770000,29.600000,30.639999,30.639999,4333800
20151203,30.490000,32.299999,30.370001,31.920000,31.920000,6777800
20151204,31.730000,31.760000,29.879999,30.059999,30.059999,10133000
20151207,30.219999,31.080000,30.200001,30.620001,30.620001,4498300
20151208,31.440001,31.730000,30.740000,31.209999,31.209999,7145000
20151209,31.549999,32.459999,30.440001,31.950001,31.950001,9420400
20151210,31.860001,32.029999,30.969999,31.680000,31.680000,7422300
20151211,32.840000,33.730000,32.490002,33.549999,33.549999,11377400
20151214,33.430000,34.500000,32.970001,33.000000,33.000000,8942000
20151215,32.150002,32.230000,31.469999,31.940001,31.940001,6710200
20151216,31.360001,32.090000,30.430000,30.629999,30.629999,6764300
20151217,30.400000,31.990000,30.389999,31.950001,31.950001,6756500
20151218,32.389999,33.779999,32.330002,33.779999,33.779999,7608200
20151221,32.970001,33.660000,32.759998,32.889999,32.889999,5195600
20151222,32.360001,32.930000,31.790001,32.000000,32.000000,5841900
20151223,31.400000,31.469999,30.760000,30.790001,30.790001,6273800
20151224,30.910000,31.059999,30.650000,31.020000,31.020000,1599300
20151228,31.340000,31.709999,31.129999,31.129999,31.129999,3713400
20151229,30.559999,30.570000,30.000000,30.180000,30.180000,4326400
20151230,30.290001,30.860001,30.250000,30.799999,30.799999,3142100
20151231,31.129999,31.709999,30.809999,31.709999,31.709999,6137200
20160104,33.320000,34.169998,33.040001,33.070000,33.070000,8449400
20160105,32.820000,33.520000,32.610001,32.799999,32.799999,6425800
20160106,34.369999,34.709999,33.520000,34.139999,34.139999,7260900
20160107,35.919998,36.810001,34.840000,36.630001,36.630001,9439800
20160108,35.910000,37.980000,35.570000,37.770000,37.770000,10129700
20160111,37.160000,39.020000,36.910000,37.759998,37.759998,9959500
20160112,36.630001,38.240002,36.240002,36.820000,36.820000,11269300
20160113,36.259998,39.770000,36.070000,39.490002,39.490002,10028100
20160114,39.040001,40.250000,36.740002,37.549999,37.549999,11654000
20160115,40.619999,41.330002,39.430000,39.970001,39.970001,11524800
20160119,38.590000,41.009998,38.529999,39.910000,39.910000,11481900
20160120,41.770000,44.310001,40.189999,41.230000,41.230000,13784000
20160121,40.950001,42.029999,39.230000,40.740002,40.740002,11262900
20160122,38.660000,39.250000,38.020000,38.169998,38.169998,9626900
20160125,38.560001,40.040001,38.400002,39.919998,39.919998,7052900
20160126,39.430000,39.660000,38.060001,38.290001,38.290001,6517700
20160127,38.680000,40.160000,37.450001,39.500000,39.500000,8170900
20160128,38.349998,40.119999,38.230000,38.880001,38.880001,6344200
20160129,38.320000,38.419998,36.029999,36.099998,36.099998,8765200
20160201,36.700001,37.090000,35.570000,36.049999,36.049999,6227000
20160202,37.049999,38.369999,37.040001,38.080002,38.080002,8594300
20160203,37.279999,39.869999,37.070000,37.439999,37.439999,10312800
20160204,37.700001,38.139999,36.520000,37.200001,37.200001,6474900
20160205,37.599998,39.740002,37.490002,39.270000,39.270000,7284400
20160208,40.669998,42.529999,40.459999,40.889999,40.889999,8249300
20160209,42.270000,42.369999,39.930000,40.900002,40.900002,6189800
20160210,40.250000,41.099998,38.990002,41.040001,41.040001,7201000
20160211,42.959999,43.750000,41.790001,42.500000,42.500000,9753900
20160212,41.110001,41.840000,39.959999,39.959999,39.959999,6038800
20160216,38.509998,39.330002,37.950001,37.950001,37.950001,6415200
20160217,37.119999,37.230000,35.840000,36.119999,36.119999,8209500
20160218,35.930000,36.740002,35.880001,36.549999,36.549999,7616100
20160219,37.070000,37.480000,36.480000,36.549999,36.549999,6303400
20160222,35.500000,35.549999,34.900002,35.020000,35.020000,6564300
20160223,35.430000,36.380001,35.240002,36.290001,36.290001,7912900
20160224,37.299999,38.029999,35.650002,35.799999,35.799999,9938500
20160225,35.520000,36.020000,34.520000,34.520000,34.520000,7012100
20160226,33.970001,34.860001,33.919998,34.720001,34.720001,8321000
20160229,34.740002,35.700001,34.160000,35.700001,35.700001,7374800
20160301,34.770000,35.070000,33.020000,33.049999,33.049999,9434300
20160302,33.259998,33.480000,32.590000,32.590000,32.590000,6250800
20160303,32.750000,33.049999,32.220001,32.230000,32.230000,5920700
20160304,32.099998,32.590000,31.469999,31.930000,31.930000,8471000
20160307,32.459999,32.480000,31.610001,31.830000,31.830000,5901600
20160308,32.419998,32.970001,32.160000,32.880001,32.880001,6525400
20160309,32.430000,32.860001,32.189999,32.389999,32.389999,5283800
20160310,32.099998,33.369999,31.570000,32.340000,32.340000,12931500
20160311,31.500000,31.540001,30.719999,30.770000,30.770000,8223700
20160314,31.020000,31.190001,30.620001,30.860001,30.860001,3590700
20160315,31.370001,31.520000,31.000000,31.010000,31.010000,3767800
20160316,31.290001,31.290001,30.260000,30.430000,30.430000,6106400
20160317,30.530001,30.730000,29.629999,29.900000,29.900000,7033200
20160318,29.620001,29.799999,29.370001,29.510000,29.510000,5031600
20160321,29.660000,29.780001,29.290001,29.400000,29.400000,4872500
20160322,29.799999,29.879999,29.170000,29.440001,29.440001,5205300
20160323,29.629999,30.129999,29.559999,30.040001,30.040001,5765100
20160324,30.590000,30.700001,30.049999,30.049999,30.049999,5349800
20160328,29.850000,30.260000,29.760000,30.040001,30.040001,3644500
20160329,30.270000,30.400000,29.150000,29.150000,29.150000,5460400
20160330,28.700001,28.990000,28.450001,28.809999,28.809999,5638400
20160331,28.889999,29.110001,28.660000,28.990000,28.990000,3516000
20160401,29.520000,29.680000,28.350000,28.480000,28.480000,5195700
20160404,28.480000,28.860001,28.379999,28.709999,28.709999,3836600
20160405,29.360001,29.690001,29.120001,29.549999,29.549999,4691200
20160406,29.530001,29.650000,28.580000,28.600000,28.600000,5775300
20160407,29.150000,29.980000,28.969999,29.639999,29.639999,7764800
20160408,29.020000,29.670000,28.799999,29.410000,29.410000,6569800
20160411,29.049999,29.639999,28.709999,29.610001,29.610001,7975600
20160412,29.510000,29.730000,28.620001,28.750000,28.750000,7970900
20160413,28.330000,28.389999,27.850000,27.900000,27.900000,7913000
20160414,27.870001,28.049999,27.650000,27.889999,27.889999,3667900
20160415,27.889999,28.139999,27.850000,27.959999,27.959999,3783200
20160418,28.260000,28.299999,27.379999,27.379999,27.379999,3829400
20160419,27.170000,27.510000,27.020000,27.110001,27.110001,5164600
20160420,27.100000,27.330000,26.740000,27.070000,27.070000,4537100
20160421,27.070000,27.610001,27.000000,27.510000,27.510000,5100200
20160422,27.650000,27.910000,27.379999,27.459999,27.459999,4540100
20160425,27.740000,28.059999,27.629999,27.629999,27.629999,3294500
20160426,27.480000,27.730000,27.280001,27.469999,27.469999,3358200
20160427,27.709999,27.860001,27.160000,27.350000,27.350000,4219500
20160428,27.680000,28.280001,27.180000,28.090000,28.090000,5671600
20160429,28.389999,29.070000,28.209999,28.510000,28.510000,10147500
20160502,28.299999,28.510000,27.770000,27.850000,27.850000,4797300
20160503,28.469999,28.940001,28.340000,28.580000,28.580000,6573600
20160504,29.100000,29.320000,28.719999,29.040001,29.040001,5802500
20160505,28.870001,29.290001,28.660000,29.070000,29.070000,3851600
20160506,29.469999,29.549999,28.750000,28.750000,28.750000,5148600
20160509,28.830000,28.920000,28.490000,28.690001,28.690001,3596600
20160510,28.370001,28.379999,27.620001,27.620001,27.620001,5137700
20160511,27.840000,28.400000,27.670000,28.379999,28.379999,5002900
20160512,28.059999,28.870001,27.990000,28.370001,28.370001,5591300
20160513,28.570000,29.270000,28.260000,29.129999,29.129999,5050600
20160516,29.040001,29.070000,28.020000,28.270000,28.270000,4262200
20160517,28.389999,29.299999,28.260000,29.010000,29.010000,5000900
20160518,29.290001,29.580000,28.440001,29.030001,29.030001,8743300
20160519,29.400000,29.940001,29.190001,29.330000,29.330000,8613800
20160520,29.000000,29.040001,28.510000,28.799999,28.799999,4562200
20160523,28.780001,28.969999,28.629999,28.889999,28.889999,5425500
20160524,28.480000,28.480000,27.600000,27.750000,27.750000,7755700
20160525,27.469999,27.469999,27.000000,27.219999,27.219999,5541200
20160526,27.150000,27.320000,27.020000,27.170000,27.170000,2994900
20160527,27.120001,27.120001,26.830000,26.850000,26.850000,3260200
20160531,26.700001,27.219999,26.650000,26.980000,26.980000,3462100
20160601,27.240000,27.340000,26.730000,26.790001,26.790001,4078200
20160602,26.990000,27.200001,26.570000,26.580000,26.580000,3176900
20160603,26.840000,27.320000,26.639999,26.780001,26.780001,4874100
20160606,26.629999,26.700001,26.230000,26.360001,26.360001,3622800
20160607,26.299999,26.330000,26.020000,26.250000,26.250000,2770900
20160608,26.200001,26.270000,25.959999,26.040001,26.040001,4025100
20160609,26.350000,26.440001,26.059999,26.129999,26.129999,3970700
20160610,26.750000,27.100000,26.559999,26.889999,26.889999,4653700
20160613,27.139999,27.520000,26.740000,27.500000,27.500000,5187500
20160614,27.670000,28.090000,27.370001,27.639999,27.639999,7362800
20160615,27.450001,27.860001,27.200001,27.790001,27.790001,5365400
20160616,28.190001,28.629999,27.430000,27.459999,27.459999,8664500
20160617,27.610001,28.120001,27.559999,27.770000,27.770000,5091800
20160620,26.870001,27.320000,26.570000,27.260000,27.260000,5448200
20160621,27.139999,27.309999,26.860001,27.070000,27.070000,5867000
20160622,26.969999,27.250000,26.650000,27.190001,27.190001,4109200
20160623,26.500000,26.730000,26.110001,26.110001,26.110001,4858800
20160624,28.820000,29.110001,27.570000,28.870001,28.870001,19087300
20160627,29.660000,30.879999,29.629999,30.520000,30.520000,13979900
20160628,29.620001,29.790001,28.840000,28.879999,28.879999,7952300
20160629,28.160000,28.190001,27.250000,27.370001,27.370001,8706800
20160630,27.139999,27.410000,26.240000,26.240000,26.240000,8198500
20160701,26.309999,26.330000,25.870001,26.100000,26.100000,5907100
20160705,26.450001,26.900000,26.400000,26.639999,26.639999,5692000
20160706,26.879999,27.150000,26.120001,26.160000,26.160000,6334000
20160707,26.090000,26.549999,25.799999,26.230000,26.230000,4780600
20160708,25.650000,25.760000,24.940001,25.040001,25.040001,6974100
20160711,24.850000,24.940001,24.540001,24.790001,24.790001,4905400
20160712,24.379999,24.480000,24.120001,24.250000,24.250000,4977600
20160713,24.070000,24.440001,24.070000,24.230000,24.230000,5194700
20160714,23.750000,24.000000,23.670000,23.860001,23.860001,4944300
20160715,23.629999,24.110001,23.610001,23.950001,23.950001,4055300
20160718,23.900000,24.000000,23.680000,23.740000,23.740000,3366900
20160719,23.920000,24.000000,23.809999,23.830000,23.830000,5686600
20160720,23.639999,23.799999,23.430000,23.510000,23.510000,3553200
20160721,23.570000,23.959999,23.480000,23.799999,23.799999,3471500
20160722,23.750000,23.840000,23.440001,23.440001,23.440001,6315800
20160725,23.549999,23.879999,23.520000,23.660000,23.660000,3092100
20160726,23.700001,23.950001,23.490000,23.650000,23.650000,3950200
20160727,23.490000,23.990000,23.469999,23.700001,23.700001,4789900
20160728,23.790001,23.950001,23.510000,23.629999,23.629999,2919200
20160729,23.730000,23.830000,23.370001,23.510000,23.510000,4292600
20160801,23.490000,23.740000,23.330000,23.590000,23.590000,4314900
20160802,23.650000,24.340000,23.600000,24.000000,24.000000,6473200
20160803,24.049999,24.160000,23.799999,23.820000,23.820000,3783600
20160804,23.770000,23.930000,23.610001,23.730000,23.730000,2214900
20160805,23.469999,23.510000,23.129999,23.180000,23.180000,6001000
20160808,23.070000,23.290001,23.040001,23.180000,23.180000,2210900
20160809,23.150000,23.270000,22.959999,23.139999,23.139999,3305700
20160810,23.110001,23.450001,23.080000,23.309999,23.309999,2936100
20160811,23.120001,23.230000,22.910000,23.010000,23.010000,3950800
20160812,23.100000,23.209999,22.980000,23.059999,23.059999,3790600
20160815,22.920000,22.920000,22.730000,22.830000,22.830000,2953400
20160816,23.020000,23.209999,22.990000,23.190001,23.190001,3346800
20160817,23.200001,23.510000,23.030001,23.070000,23.070000,4632900
20160818,23.100000,23.129999,22.910000,22.910000,22.910000,2660100
20160819,23.100000,23.270000,22.959999,23.010000,23.010000,3788000
20160822,23.120001,23.260000,22.950001,23.030001,23.030001,3590400
20160823,22.809999,22.910000,22.690001,22.889999,22.889999,3231900
20160824,22.950001,23.400000,22.910000,23.230000,23.230000,4149500
20160825,23.400000,23.450001,23.129999,23.299999,23.299999,6921400
20160826,23.230000,23.760000,22.840000,23.430000,23.430000,8749900
20160829,23.370001,23.379999,22.969999,23.070000,23.070000,5179900
20160830,23.100000,23.400000,23.010000,23.190001,23.190001,4860400
20160831,23.299999,23.670000,23.270000,23.379999,23.379999,5106400
20160901,23.389999,23.820000,23.270000,23.400000,23.400000,5988700
20160902,23.070000,23.290001,22.910000,23.080000,23.080000,5318100
20160906,22.969999,23.230000,22.840000,22.840000,22.840000,4305200
20160907,22.920000,23.090000,22.809999,22.840000,22.840000,3524300
20160908,22.990000,23.139999,22.889999,23.030001,23.030001,4568200
20160909,23.520000,24.680000,23.490000,24.670000,24.670000,11302000
20160912,24.990000,25.020000,23.450001,23.600000,23.600000,13975800
20160913,24.110001,24.860001,24.000000,24.650000,24.650000,13157500
20160914,24.629999,24.889999,24.129999,24.660000,24.660000,9170000
20160915,24.750000,24.799999,23.770000,23.920000,23.920000,7429200
20160916,24.170000,24.459999,24.100000,24.230000,24.230000,8690100
20160919,23.930000,24.309999,23.690001,24.170000,24.170000,5037100
20160920,23.850000,24.190001,23.780001,24.190001,24.190001,3141000
20160921,23.910000,24.180000,23.299999,23.360001,23.360001,11358800
20160922,22.980000,23.080000,22.809999,22.950001,22.950001,7383800
20160923,23.080000,23.340000,23.030001,23.290001,23.290001,3345100
20160926,23.620001,23.930000,23.549999,23.889999,23.889999,5317400
20160927,23.920000,24.070000,23.389999,23.430000,23.430000,4253300
20160928,23.340000,23.709999,23.020000,23.059999,23.059999,4538000
20160929,23.150000,23.900000,23.000000,23.690001,23.690001,7401400
20160930,23.389999,23.469999,22.900000,23.139999,23.139999,6891000
20161003,23.320000,23.559999,23.240000,23.340000,23.340000,4137400
20161004,23.280001,23.910000,23.200001,23.680000,23.680000,6347700
20161005,23.459999,23.459999,23.209999,23.379999,23.379999,3441600
20161006,23.459999,23.670000,23.240000,23.299999,23.299999,3338400
20161007,23.209999,23.850000,23.150000,23.549999,23.549999,5687000
20161010,23.209999,23.250000,23.030001,23.200001,23.200001,3123500
20161011,23.350000,24.350000,23.340000,24.070000,24.070000,7621000
20161012,24.040001,24.219999,23.780001,23.969999,23.969999,5011200
20161013,24.510000,24.830000,24.020000,24.209999,24.209999,6920500
20161014,23.830000,24.209999,23.639999,24.190001,24.190001,5799100
20161017,24.200001,24.500000,24.090000,24.420000,24.420000,4005800
20161018,23.799999,24.139999,23.780001,24.000000,24.000000,5870400
20161019,23.879999,24.020000,23.670000,23.809999,23.809999,3365400
20161020,23.930000,24.180000,23.700001,23.930000,23.930000,4192300
20161021,24.230000,24.290001,23.850000,23.889999,23.889999,3250700
20161024,23.559999,23.719999,23.440001,23.610001,23.610001,2760800
20161025,23.650000,23.879999,23.559999,23.809999,23.809999,4193000
20161026,24.129999,24.230000,23.740000,23.940001,23.940001,4549700
20161027,23.680000,24.190001,23.670000,24.170000,24.170000,5370500
20161028,24.180000,24.650000,23.900000,24.389999,24.389999,10440600
20161031,24.230000,24.440001,24.150000,24.410000,24.410000,3801600
20161101,24.250000,25.389999,24.230000,24.910000,24.910000,7278400
20161102,25.020000,25.530001,24.879999,25.379999,25.379999,7785300
20161103,25.270000,25.820000,25.170000,25.670000,25.670000,6353900
20161104,25.660000,25.840000,25.290001,25.790001,25.790001,7084200
20161107,24.709999,24.760000,24.059999,24.100000,24.100000,8319100
20161108,24.240000,24.350000,23.530001,23.750000,23.750000,7089100
20161109,24.360001,24.370001,22.770000,23.010000,23.010000,17324200
20161110,22.700001,23.360001,22.379999,22.830000,22.830000,12705100
20161111,23.090000,23.330000,22.900000,22.969999,22.969999,6525200
20161114,22.780001,23.200001,22.709999,22.950001,22.950001,4700700
20161115,22.790001,22.860001,22.389999,22.389999,22.389999,4635900
20161116,22.620001,22.660000,22.440001,22.500000,22.500000,3050900
20161117,22.459999,22.500000,22.160000,22.209999,22.209999,3977200
20161118,22.160000,22.400000,22.090000,22.309999,22.309999,2934800
20161121,22.120001,22.170000,21.809999,21.840000,21.840000,3686900
20161122,21.700001,21.950001,21.629999,21.719999,21.719999,3975700
20161123,21.860001,21.940001,21.639999,21.639999,21.639999,2990600
20161125,21.540001,21.570000,21.410000,21.410000,21.410000,1718100
20161128,21.520000,21.750000,21.430000,21.680000,21.680000,3115200
20161129,21.700001,21.809999,21.440001,21.580000,21.580000,3552000
20161130,21.370001,21.760000,21.320000,21.740000,21.740000,4267100
20161201,21.650000,22.110001,21.650000,21.990000,21.990000,4716800
20161202,21.959999,22.080000,21.780001,21.969999,21.969999,4030000
20161205,21.670000,21.730000,21.430000,21.570000,21.570000,4414000
20161206,21.490000,21.650000,21.340000,21.340000,21.340000,3594600
20161207,21.420000,21.450001,20.490000,20.540001,20.540001,7064900
20161208,20.510000,20.610001,20.209999,20.379999,20.379999,5920400
20161209,20.290001,20.299999,20.000000,20.020000,20.020000,4888300
20161212,20.030001,20.190001,19.879999,20.059999,20.059999,3565700
20161213,19.860001,19.870001,19.520000,19.660000,19.660000,5741500
20161214,19.760000,20.280001,19.549999,20.129999,20.129999,10119900
20161215,20.070000,20.120001,19.629999,19.900000,19.900000,4712600
20161216,19.760000,20.110001,19.750000,19.990000,19.990000,3319900
20161219,19.959999,20.010000,19.760000,19.879999,19.879999,2733900
20161220,19.709999,19.790001,19.610001,19.670000,19.670000,2329200
20161221,19.680000,19.830000,19.650000,19.830000,19.830000,2218800
20161222,19.870001,20.040001,19.840000,19.910000,19.910000,2368400
20161223,19.920000,19.969999,19.840000,19.870001,19.870001,1145300
20161227,19.760000,19.770000,19.580000,19.700001,19.700001,1765600
20161228,19.620001,20.219999,19.620001,20.180000,20.180000,3344100
20161229,20.170000,20.340000,20.059999,20.219999,20.219999,3244300
20161230,20.100000,20.639999,20.080000,20.410000,20.410000,4647400
20170103,20.000000,20.330000,19.790001,19.959999,19.959999,3601400
20170104,19.860001,19.870001,19.559999,19.620001,19.620001,3888000
20170105,19.690001,19.889999,19.600000,19.650000,19.650000,3318900
20170106,19.620001,19.780001,19.309999,19.450001,19.450001,4161300
20170109,19.530001,19.650000,19.480000,19.650000,19.650000,2804200
20170110,19.629999,19.750000,19.389999,19.639999,19.639999,2627800
20170111,19.680000,19.870001,19.469999,19.469999,19.469999,4340400
20170112,19.620001,20.020000,19.570000,19.600000,19.600000,4734700
20170113,19.570000,19.590000,19.400000,19.490000,19.490000,2557600
20170117,19.680000,19.809999,19.570000,19.700001,19.700001,3861100
20170118,19.629999,19.790001,19.559999,19.570000,19.570000,2701700
20170119,19.549999,19.920000,19.500000,19.790001,19.790001,3045800
20170120,19.580000,19.760000,19.420000,19.580000,19.580000,5190400
20170123,19.690001,19.950001,19.559999,19.700001,19.700001,4604900
20170124,19.650000,19.690001,19.219999,19.340000,19.340000,4410500
20170125,19.070000,19.120001,18.850000,18.870001,18.870001,4727100
20170126,18.900000,18.990000,18.809999,18.920000,18.920000,2728200
20170127,18.889999,19.040001,18.840000,19.000000,19.000000,2051500
20170130,19.200001,19.629999,19.190001,19.320000,19.320000,5486300
20170131,19.500000,19.670000,19.350000,19.370001,19.370001,4357000
20170201,19.170000,19.510000,19.090000,19.320000,19.320000,4717700
20170202,19.440001,19.540001,19.219999,19.290001,19.290001,3505600
20170203,19.030001,19.129999,18.850000,18.879999,18.879999,4721600
20170206,19.020000,19.100000,18.910000,19.000000,19.000000,2724800
20170207,18.879999,19.059999,18.830000,19.000000,19.000000,3673500
20170208,19.090000,19.160000,18.900000,18.920000,18.920000,3495300
20170209,18.850000,18.860001,18.510000,18.620001,18.620001,4319700
20170210,18.490000,18.530001,18.309999,18.379999,18.379999,3190000
20170213,18.230000,18.250000,18.000000,18.090000,18.090000,4116400
20170214,18.120001,18.209999,17.850000,17.850000,17.850000,4270100
20170215,17.930000,17.930000,17.530001,17.610001,17.610001,5150100
20170216,17.580000,17.820000,17.540001,17.620001,17.620001,5454300
20170217,17.809999,17.820000,17.549999,17.549999,17.549999,2279700
20170221,17.450001,17.450001,17.190001,17.240000,17.240000,4884500
20170222,17.340000,17.379999,17.219999,17.290001,17.290001,3475800
20170223,17.150000,17.430000,17.139999,17.240000,17.240000,3485300
20170224,17.459999,17.480000,17.170000,17.170000,17.170000,3620300
20170227,17.209999,17.270000,17.059999,17.100000,17.100000,3177100
20170228,17.200001,17.340000,17.139999,17.219999,17.219999,2603700
20170301,16.820000,16.830000,16.410000,16.530001,16.530001,7250600
20170302,16.570000,16.850000,16.570000,16.809999,16.809999,4557200
20170303,16.850000,16.950001,16.760000,16.790001,16.790001,3883300
20170306,17.000000,17.100000,16.870001,16.950001,16.950001,3568900
20170307,17.030001,17.150000,16.950001,17.100000,17.100000,3132400
20170308,17.030001,17.240000,16.969999,17.190001,17.190001,3951300
20170309,17.190001,17.389999,17.059999,17.139999,17.139999,4517000
20170310,16.889999,17.200001,16.879999,16.969999,16.969999,4235100
20170313,16.980000,17.059999,16.930000,16.930000,16.930000,2101800
20170314,17.070000,17.280001,17.049999,17.110001,17.110001,3677100
20170315,16.990000,17.049999,16.590000,16.700001,16.700001,5561800
20170316,16.650000,16.870001,16.639999,16.780001,16.780001,3891700
20170317,16.719999,16.860001,16.680000,16.850000,16.850000,2604700
20170320,16.889999,17.030001,16.809999,16.930000,16.930000,5350600
20170321,16.770000,17.620001,16.760000,17.580000,17.580000,9897700
20170322,17.590000,17.740000,17.400000,17.459999,17.459999,8612300
20170323,17.540001,17.620001,17.240000,17.540001,17.540001,6767300
20170324,17.440001,17.770000,17.299999,17.570000,17.570000,10690700
20170327,18.000000,18.070000,17.549999,17.629999,17.629999,6199800
20170328,17.690001,17.719999,17.120001,17.260000,17.260000,5223700
20170329,17.309999,17.370001,17.139999,17.190001,17.190001,3651800
20170330,17.209999,17.250000,16.980000,17.030001,17.030001,4019800
20170331,17.120001,17.160000,16.980000,17.150000,17.150000,2971300
20170403,17.129999,17.549999,17.080000,17.240000,17.240000,5583400
20170404,17.320000,17.400000,17.190001,17.190001,17.190001,5442500
20170405,17.040001,17.420000,16.799999,17.370001,17.370001,7440200
20170406,17.330000,17.440001,17.090000,17.219999,17.219999,6461700
20170407,17.290001,17.400000,17.100000,17.280001,17.280001,5257400
20170410,17.250000,17.379999,17.040001,17.240000,17.240000,5461200
20170411,17.340000,17.680000,17.290001,17.309999,17.309999,5868100
20170412,17.389999,17.600000,17.350000,17.530001,17.530001,4133300
20170413,17.629999,17.879999,17.440001,17.870001,17.870001,6287700
20170417,17.750000,17.790001,17.410000,17.420000,17.420000,4179400
20170418,17.600000,17.740000,17.430000,17.580000,17.580000,3672400
20170419,17.430000,17.730000,17.330000,17.660000,17.660000,4351600
20170420,17.520000,17.600000,17.129999,17.260000,17.260000,6218800
20170421,17.260000,17.510000,17.260000,17.410000,17.410000,3841900
20170424,16.830000,16.959999,16.780001,16.860001,16.860001,5765600
20170425,16.680000,16.700001,16.459999,16.549999,16.549999,5423000
20170426,16.549999,16.590000,16.340000,16.580000,16.580000,6022600
20170427,16.500000,16.670000,16.469999,16.520000,16.520000,3803200
20170428,16.480000,16.680000,16.469999,16.629999,16.629999,2920700
20170501,16.510000,16.629999,16.420000,16.530001,16.530001,2951300
20170502,16.490000,16.600000,16.459999,16.510000,16.510000,2743300
20170503,16.610001,16.730000,16.520000,16.559999,16.559999,4085800
20170504,16.490000,16.719999,16.480000,16.510000,16.510000,2516800
20170505,16.430000,16.530001,16.320000,16.320000,16.320000,2357100
20170508,16.299999,16.430000,16.270000,16.330000,16.330000,1962100
20170509,16.260000,16.450001,16.219999,16.370001,16.370001,3000600
20170510,16.400000,16.440001,16.290001,16.290001,16.290001,2854000
20170511,16.400000,16.650000,16.350000,16.370001,16.370001,3536300
20170512,16.450001,16.540001,16.430000,16.459999,16.459999,2259200
20170515,16.379999,16.379999,16.180000,16.230000,16.230000,3464200
20170516,16.150000,16.340000,16.129999,16.250000,16.250000,3116900
20170517,16.660000,17.129999,16.540001,17.100000,17.100000,8472900
20170518,17.150000,17.209999,16.709999,16.930000,16.930000,8100700
20170519,16.790001,16.809999,16.420000,16.600000,16.600000,6090600
20170522,16.469999,16.490000,16.299999,16.350000,16.350000,4790200
20170523,16.250000,16.340000,16.190001,16.219999,16.219999,4455500
20170524,16.180000,16.260000,16.090000,16.129999,16.129999,4152900
20170525,16.010000,16.040001,15.820000,15.890000,15.890000,5743700
20170526,15.930000,15.950000,15.870000,15.910000,15.910000,2008500
20170530,15.980000,16.010000,15.890000,15.920000,15.920000,2467500
20170531,15.870000,16.120001,15.870000,15.950000,15.950000,3334100
20170601,15.850000,15.920000,15.590000,15.590000,15.590000,4115300
20170602,15.560000,15.630000,15.390000,15.450000,15.450000,4160500
20170605,15.470000,15.500000,15.400000,15.460000,15.460000,2219200
20170606,15.600000,15.630000,15.460000,15.610000,15.610000,3486100
20170607,15.530000,15.690000,15.480000,15.530000,15.530000,2596900
20170608,15.500000,15.620000,15.400000,15.510000,15.510000,3354800
20170609,15.440000,15.850000,15.270000,15.570000,15.570000,7663000
20170612,15.630000,15.770000,15.570000,15.580000,15.580000,4124700
20170613,15.460000,15.540000,15.350000,15.350000,15.350000,3135900
20170614,15.300000,15.600000,15.300000,15.410000,15.410000,7086300
20170615,15.720000,15.780000,15.490000,15.520000,15.520000,4163800
20170616,15.490000,15.700000,15.480000,15.500000,15.500000,2928700
20170619,15.330000,15.350000,15.110000,15.140000,15.140000,4753500
20170620,15.200000,15.430000,15.190000,15.430000,15.430000,5143500
20170621,15.360000,15.540000,15.320000,15.420000,15.420000,4216400
20170622,15.440000,15.510000,15.330000,15.470000,15.470000,6096700
20170623,15.460000,15.540000,15.340000,15.410000,15.410000,5289800
20170626,15.260000,15.430000,15.170000,15.380000,15.380000,3635600
20170627,15.430000,15.760000,15.370000,15.740000,15.740000,10375200
20170628,15.530000,15.590000,15.290000,15.350000,15.350000,7015300
20170629,15.310000,16.000000,15.290000,15.730000,15.730000,10670700
20170630,15.570000,15.700000,15.480000,15.650000,15.650000,4453800
20170703,15.450000,15.570000,15.350000,15.570000,15.570000,2448600
20170705,15.510000,15.680000,15.430000,15.490000,15.490000,3237800
20170706,15.660000,15.940000,15.630000,15.900000,15.900000,4484200
20170707,15.780000,15.810000,15.560000,15.620000,15.620000,3875800
20170710,15.620000,15.660000,15.460000,15.540000,15.540000,1874100
20170711,15.590000,15.840000,15.510000,15.600000,15.600000,3615300
20170712,15.370000,15.380000,15.200000,15.240000,15.240000,3938600
20170713,15.230000,15.290000,15.140000,15.170000,15.170000,2907300
20170714,15.170000,15.180000,14.870000,14.950000,14.950000,9231100
20170717,14.980000,15.000000,14.890000,14.960000,14.960000,3145100
20170718,15.040000,15.120000,14.920000,14.920000,14.920000,5338800
20170719,14.870000,14.870000,14.700000,14.700000,14.700000,9508500
20170720,14.640000,14.790000,14.620000,14.700000,14.700000,13345600
20170721,14.800000,14.850000,14.710000,14.730000,14.730000,3942300
20170724,14.730000,14.830000,14.700000,14.700000,14.700000,8197800
20170725,14.580000,14.670000,14.550000,14.640000,14.640000,3015700
20170726,14.580000,14.680000,14.560000,14.620000,14.620000,4856000
20170727,14.540000,14.940000,14.530000,14.670000,14.670000,10066400
20170728,14.780000,14.860000,14.700000,14.720000,14.720000,5838000
20170731,14.640000,14.800000,14.630000,14.750000,14.750000,4856700
20170801,14.630000,14.740000,14.630000,14.660000,14.660000,5730200
20170802,14.630000,14.830000,14.610000,14.640000,14.640000,6499400
20170803,14.670000,14.780000,14.660000,14.720000,14.720000,4583000
